<svg xmlns="http://www.w3.org/2000/svg" width="55" height="55" viewBox="0 0 55 55">
    <g fill="none">
        <path d="M0 0H55V55H0z"/>
        <path fill="#FFF" d="M39.286 33.393v1.964H15.714v-1.964h23.572zm0-6.875v1.964H15.714v-1.964h23.572zm0-6.875v1.964H15.714v-1.964h23.572z"/>
    </g>
</svg>
