<?xml version="1.0" encoding="UTF-8"?>
<svg width="32px" height="32px" viewBox="0 0 32 32" version="1.1" xmlns="http://www.w3.org/2000/svg" xmlns:xlink="http://www.w3.org/1999/xlink">
    <!-- Generator: Sketch 52.3 (67297) - http://www.bohemiancoding.com/sketch -->
    <title>btn_header_search_blue_normal</title>
    <desc>Created with Sketch.</desc>
    <g id="btn_header_search_blue_normal" stroke="none" stroke-width="1" fill="none" fill-rule="evenodd">
        <polygon id="Fill-1" points="0 32.0001 32 32.0001 32 0.0001 0 0.0001"></polygon>
        <path d="M14.0001,20 C10.6911,20 8.0001,17.308 8.0001,13.999 C8.0001,10.691 10.6911,8 14.0001,8 C17.3091,8 20.0001,10.691 20.0001,13.999 C20.0001,17.308 17.3091,20 14.0001,20 Z M26.0001,24.586 L20.3121,18.898 C21.3661,17.542 22.0001,15.845 22.0001,13.999 C22.0001,9.588 18.4111,6 14.0001,6 C9.5891,6 6.0001,9.588 6.0001,13.999 C6.0001,18.411 9.5891,22 14.0001,22 C15.8461,22 17.5421,21.366 18.8981,20.312 L24.5861,26 L26.0001,24.586 Z" id="Fill-2" fill="#008CD6"></path>
    </g>
</svg>