<svg xmlns="http://www.w3.org/2000/svg" width="32" height="32" viewBox="0 0 32 32">
    <g fill="none" fill-rule="evenodd">
        <path d="M0 32h32V0H0z"/>
        <circle cx="16" cy="16" r="16" fill="#000"/>
        <path fill="#008CD6" d="M10.736 22.009A7.911 7.911 0 0 1 16 20a7.91 7.91 0 0 1 5.265 2.009 7.957 7.957 0 0 1-10.529 0M14 16c0-1.102.898-2 2-2 1.103 0 2 .898 2 2 0 1.103-.897 2-2 2-1.102 0-2-.897-2-2m2-8c4.411 0 8 3.589 8 8a7.95 7.95 0 0 1-1.405 4.519 9.866 9.866 0 0 0-3.5-2.016A3.963 3.963 0 0 0 20 16c0-2.205-1.794-4-4-4-2.205 0-4 1.795-4 4 0 .952.348 1.815.905 2.503a9.913 9.913 0 0 0-3.5 2.016A7.957 7.957 0 0 1 8 16c0-4.411 3.589-8 8-8m0-2C10.486 6 6 10.486 6 16s4.486 10 10 10 10-4.486 10-10S21.514 6 16 6"/>
    </g>
</svg>
