<svg xmlns="http://www.w3.org/2000/svg" width="32" height="32" viewBox="0 0 32 32">
    <g fill="none" fill-rule="evenodd">
        <path d="M0 32h32V0H0z"/>
        <circle cx="16" cy="16" r="16" fill="#000"/>
        <path fill="#008CD6" fill-rule="nonzero" d="M24 21v2H8v-2h16zm0-6v2H8v-2h16zm0-6v2H8V9h16z"/>
    </g>
</svg>
