<svg xmlns="http://www.w3.org/2000/svg" width="32" height="32" viewBox="0 0 32 32">
    <g fill="none" fill-rule="evenodd">
        <path d="M0 32h32V0H0z"/>
        <path fill="#FFF" d="M18.244 6.232l.678.208a10.032 10.032 0 0 1 3.893 2.267l.516.483-.905 2.065c.359.484.66 1.003.9 1.553l2.248.25.16.689A9.96 9.96 0 0 1 26 16.002c0 .733-.088 1.49-.265 2.25l-.16.69-2.248.25c-.24.55-.54 1.069-.9 1.554l.907 2.066-.518.483a10.08 10.08 0 0 1-3.893 2.267l-.68.208-1.34-1.822a7.746 7.746 0 0 1-1.806 0l-1.341 1.822-.68-.208a10.093 10.093 0 0 1-3.89-2.265l-.517-.484.905-2.066a7.905 7.905 0 0 1-.9-1.555l-2.247-.25-.161-.688A9.977 9.977 0 0 1 6 16.002c0-.738.09-1.496.266-2.255l.16-.69 2.248-.25c.24-.55.542-1.068.902-1.553l-.908-2.065.519-.484A10.047 10.047 0 0 1 13.08 6.44l.678-.208 1.34 1.82a7.895 7.895 0 0 1 1.806 0l1.34-1.82zm.75 2.355l-1.214 1.65-.622-.122a5.97 5.97 0 0 0-2.311-.001l-.622.124-1.217-1.651c-.683.28-1.334.66-1.925 1.125l.823 1.874-.417.479a5.997 5.997 0 0 0-1.158 1.996l-.206.597-2.041.228c-.056.377-.084.75-.084 1.116 0 .364.028.736.084 1.112l2.04.226.207.6a5.946 5.946 0 0 0 1.155 1.994l.419.478-.823 1.878a7.864 7.864 0 0 0 1.924 1.125l1.217-1.653.623.123a5.894 5.894 0 0 0 2.31 0l.624-.123 1.214 1.652a8.091 8.091 0 0 0 1.926-1.125l-.823-1.877.418-.478c.515-.59.903-1.26 1.154-1.993l.206-.6 2.042-.227a7.582 7.582 0 0 0 0-2.228l-2.042-.227-.206-.598a5.963 5.963 0 0 0-1.155-1.995l-.417-.478.82-1.876a8.032 8.032 0 0 0-1.923-1.125zM16 12c2.206 0 4 1.794 4 4s-1.794 4-4 4-4-1.794-4-4 1.794-4 4-4zm0 2c-1.103 0-2 .897-2 2s.897 2 2 2 2-.897 2-2-.897-2-2-2z"/>
    </g>
</svg>
