<?xml version="1.0" encoding="UTF-8"?>
<svg width="32px" height="32px" viewBox="0 0 32 32" version="1.1" xmlns="http://www.w3.org/2000/svg" xmlns:xlink="http://www.w3.org/1999/xlink">
    <!-- Generator: Sketch 52.3 (67297) - http://www.bohemiancoding.com/sketch -->
    <title>btn_main_delete_active</title>
    <desc>Created with Sketch.</desc>
    <g id="btn_main_delete_active" stroke="none" stroke-width="1" fill="none" fill-rule="evenodd">
        <polygon id="Fill-1" points="0 32 32 32 32 0 0 0"></polygon>
        <circle id="Oval" fill="#CE2F2F" cx="16" cy="16" r="16"></circle>
        <polygon id="Fill-2" fill="#FFFFFF" points="17 21.999 19 21.999 19 12.999 17 12.999"></polygon>
        <polygon id="Fill-3" fill="#FFFFFF" points="13 21.999 15 21.999 15 12.999 13 12.999"></polygon>
        <path d="M10.9357,23.9997 L10.0687,10.9997 L21.9317,10.9997 L21.0657,23.9997 L10.9357,23.9997 Z M12.5357,7.9997 L19.4657,7.9997 L20.1317,8.9987 L11.8697,8.9987 L12.5357,7.9997 Z M26.0007,8.9987 L24.0687,8.9987 L22.5357,8.9987 L20.5367,5.9997 L11.4647,5.9997 L9.4657,8.9987 L7.9317,8.9987 L6.0007,8.9987 L6.0007,10.9987 L8.0647,10.9987 L9.0647,25.9997 L22.9367,25.9997 L23.9357,10.9987 L26.0007,10.9987 L26.0007,8.9987 Z" id="Fill-4" fill="#FFFFFF"></path>
    </g>
</svg>