<svg xmlns="http://www.w3.org/2000/svg" width="128" height="56" viewBox="0 0 128 56">
    <g fill="none" fill-rule="evenodd">
        <path fill-rule="nonzero" d="M0 0h128v56H0z"/>
        <g fill="#9FA7B7">
            <path fill-rule="nonzero" d="M10.738 27.204h4.286l1.582 12.962h.051l1.889-12.962h3.98l2.042 12.962h.05l1.532-12.962h4.133L27.12 45.422h-4.746L20.51 32.486h-.05l-1.761 12.936h-4.746zM30.945 27.204h4.287v18.218h-4.287zM40.615 39.86v.638c0 1.378.383 2.424 1.863 2.424 1.505 0 1.939-1.123 1.939-2.169 0-3.93-7.834-1.735-7.834-8.548 0-2.909 1.557-5.358 5.971-5.358 4.287 0 5.818 2.168 5.818 4.975v.434h-4.134c0-.868-.102-1.505-.357-1.914-.255-.434-.664-.638-1.301-.638-1.072 0-1.71.638-1.71 1.965 0 3.802 7.834 1.888 7.834 8.319 0 4.133-2.297 5.792-6.226 5.792-3.113 0-5.997-.945-5.997-4.746V39.86h4.134zM49.876 27.204h10.538v3.47h-6.251v3.649h5.868v3.47h-5.868v4.16h6.532v3.47h-10.82zM61.28 36.313h7.707v3.47H61.28zM70.287 27.204h6.635c4.516 0 5.384 3.266 5.384 5.537 0 3.266-1.557 5.562-5.844 5.562h-1.888v7.12h-4.287V27.203zm4.287 7.936h1.173c1.71 0 2.119-1.072 2.119-2.297 0-1.404-.46-2.475-2.195-2.475h-1.097v4.772zM82.381 35.854c.026-1.889.587-3.037 1.557-3.7.97-.664 2.143-.893 3.853-.893 3.394 0 4.899 1.174 4.899 4.083v7.093c0 1.046 0 2.373.485 2.985h-3.98c-.154-.484-.205-1.046-.23-1.581h-.052c-.56 1.224-1.862 1.939-3.24 1.939-2.322 0-3.674-1.225-3.674-4.21 0-1.608.663-2.96 1.684-3.522 1.02-.561 2.552-.816 3.7-1.122 1.25-.332 1.48-.536 1.48-1.582 0-.843-.383-1.379-1.302-1.379-1.148 0-1.48.69-1.505 1.889H82.38zm4.797 7.068c.868 0 1.659-.51 1.659-1.888 0-1.149.025-1.863.025-2.424-1.3.689-1.862.714-2.245 1.02-.434.332-.638.766-.638 1.531 0 1.097.434 1.76 1.2 1.76zM94.245 35.854c.026-1.889.588-3.037 1.557-3.7.97-.664 2.143-.893 3.853-.893 3.394 0 4.9 1.174 4.9 4.083v7.093c0 1.046 0 2.373.484 2.985h-3.98c-.154-.484-.205-1.046-.23-1.581h-.051c-.562 1.224-1.863 1.939-3.24 1.939-2.323 0-3.675-1.225-3.675-4.21 0-1.608.663-2.96 1.684-3.522 1.02-.561 2.552-.816 3.7-1.122 1.25-.332 1.48-.536 1.48-1.582 0-.843-.383-1.379-1.301-1.379-1.149 0-1.48.69-1.506 1.889h-3.675zm4.798 7.068c.867 0 1.658-.51 1.658-1.888 0-1.149.026-1.863.026-2.424-1.301.689-1.863.714-2.246 1.02-.434.332-.638.766-.638 1.531 0 1.097.434 1.76 1.2 1.76zM109.911 39.86v.638c0 1.378.384 2.424 1.863 2.424 1.506 0 1.94-1.123 1.94-2.169 0-3.93-7.834-1.735-7.834-8.548 0-2.909 1.556-5.358 5.97-5.358 4.288 0 5.819 2.168 5.819 4.975v.434h-4.134c0-.868-.102-1.505-.357-1.914-.255-.434-.664-.638-1.301-.638-1.072 0-1.71.638-1.71 1.965 0 3.802 7.834 1.888 7.834 8.319 0 4.133-2.297 5.792-6.227 5.792-3.112 0-5.996-.945-5.996-4.746V39.86h4.133z"/>
            <path d="M10.738 23.302V11.846h4.325c.76 0 1.341.038 1.744.11.562.093 1.034.272 1.416.533.381.264.688.632.92 1.104.232.472.346.992.346 1.56 0 .97-.309 1.795-.93 2.467-.619.674-1.741 1.01-3.363 1.01h-2.939v4.672h-1.52zm1.52-6.016h2.96c.98 0 1.674-.181 2.087-.546.411-.366.617-.877.617-1.542 0-.477-.12-.888-.363-1.229a1.706 1.706 0 0 0-.957-.677c-.256-.067-.728-.102-1.414-.102h-2.93v4.096zm8.687.44c0-1.898.513-3.386 1.534-4.46 1.021-1.075 2.338-1.611 3.954-1.611 1.059 0 2.011.253 2.862.757a4.944 4.944 0 0 1 1.94 2.112c.446.901.67 1.925.67 3.07 0 1.159-.234 2.2-.704 3.114-.47.917-1.133 1.61-1.992 2.08a5.702 5.702 0 0 1-2.784.706c-1.08 0-2.042-.261-2.893-.78a5.022 5.022 0 0 1-1.93-2.131 6.445 6.445 0 0 1-.657-2.857zm1.569.027c0 1.379.37 2.464 1.112 3.256.74.792 1.671 1.19 2.791 1.19 1.142 0 2.078-.4 2.816-1.2.736-.8 1.104-1.937 1.104-3.409 0-.93-.157-1.744-.472-2.437-.314-.693-.776-1.232-1.38-1.613a3.765 3.765 0 0 0-2.044-.574 3.875 3.875 0 0 0-2.768 1.105c-.773.735-1.16 1.962-1.16 3.682zm13.317 5.55l-3.016-11.457h1.573l1.717 7.513c.187.786.352 1.567.494 2.34.3-1.22.477-1.925.528-2.111l2.165-7.742h1.827l1.642 5.8c.403 1.44.702 2.793.894 4.054a63.21 63.21 0 0 1 .583-2.488l1.79-7.366h1.522l-3.136 11.456H42.94l-2.403-8.727-.37-1.344c-.131.522-.249.97-.35 1.34l-2.402 8.731H35.83zm13.157 0V11.845h8.272v1.344h-6.752v3.52h6.32v1.344h-6.32v3.905h7.024v1.343h-8.544zm10.672 0V11.845h5.077c1.022 0 1.797.104 2.328.31.53.205.955.568 1.272 1.088.317.52.475 1.096.475 1.725 0 .813-.264 1.499-.79 2.056-.525.557-1.336.91-2.434 1.061.402.193.706.384.914.57.443.406.862.916 1.254 1.526l1.98 3.12h-1.892l-1.515-2.384c-.44-.69-.805-1.216-1.09-1.581-.289-.365-.545-.618-.771-.765a2.32 2.32 0 0 0-.691-.304c-.17-.035-.45-.053-.843-.053H61.18v5.087h-1.52zm1.52-6.4h3.253c.693 0 1.232-.073 1.621-.217.39-.14.686-.37.886-.688.202-.314.304-.656.304-1.026 0-.541-.195-.99-.587-1.339-.392-.35-1.01-.523-1.856-.523H61.18v3.792zm10.034 6.4V11.845h8.272v1.344h-6.752v3.52h6.32v1.344h-6.32v3.905h7.024v1.343h-8.544zm10.64 0V11.845h3.947c.89 0 1.57.054 2.04.163a3.908 3.908 0 0 1 1.68.821c.605.513 1.056 1.163 1.354 1.958.302.795.451 1.704.451 2.725 0 .87-.101 1.64-.304 2.312-.202.672-.464 1.23-.781 1.67-.32.44-.667.786-1.045 1.037-.377.253-.833.445-1.366.576-.536.13-1.15.194-1.842.194h-4.134zm1.52-1.344h2.443c.754 0 1.346-.07 1.776-.211.429-.142.77-.339 1.027-.595.357-.36.637-.845.837-1.453.2-.608.301-1.344.301-2.211 0-1.2-.197-2.122-.59-2.768-.391-.645-.869-1.077-1.431-1.296-.405-.157-1.059-.235-1.96-.235h-2.403v8.769zm14.45 1.343V11.846h4.3c.874 0 1.575.115 2.106.347.528.232.941.59 1.24 1.072.301.48.45.984.45 1.512 0 .488-.133.95-.397 1.382-.264.432-.664.78-1.2 1.047.694.203 1.227.55 1.598 1.04.373.488.56 1.067.56 1.734 0 .538-.115 1.037-.342 1.498-.226.462-.506.816-.84 1.067-.333.248-.752.437-1.253.566-.504.127-1.12.191-1.85.191h-4.371zm1.52-6.64h2.478c.672 0 1.154-.045 1.445-.133.387-.115.678-.306.872-.573.195-.267.294-.6.294-1.003 0-.381-.091-.717-.275-1.005a1.38 1.38 0 0 0-.782-.597c-.338-.107-.92-.16-1.74-.16h-2.291v3.472zm0 5.297h2.854c.49 0 .835-.02 1.034-.057.347-.06.64-.165.875-.312.235-.146.427-.36.579-.64.152-.28.226-.602.226-.968 0-.429-.109-.8-.33-1.117a1.728 1.728 0 0 0-.912-.667c-.387-.128-.947-.192-1.675-.192h-2.65v3.953zm12.446 1.343V18.45l-4.416-6.603h1.824l2.264 3.467c.421.643.813 1.285 1.17 1.928.35-.6.774-1.272 1.267-2.018l2.219-3.377h1.768l-4.576 6.603v4.853h-1.52z"/>
        </g>
    </g>
</svg>
